{
  "_schemaVersion": "1.0.0",
  "matrixinfo":
  {
    "inputs":
    [
        {"name":"matrices", "kind":"required", "type":[["cell"],["2d"]], "purpose":"Input matrices"},
		{"name":"property", "kind":"flag", "repeating":true, "type":["choices={'acyclic','altsign','arrowhead','bool','cauchy','circulant','cmirror','commute','commuteall','cond','condeig','conference','conjugate','cycles','defective','det','diag','diagdom','epsilon','eig','eigvec','equal','finite','frobenius','girth','hankel','hermitian','hermitian_skew','hessl','hessu','householder','identity','int','involutory','inv','kone','l','laplacian','le','leidentity','lognorm','lt','m','metzler','n','nan','ndims','nonneg','nonzero','norm','normal','numcomp','primitive','pm1','pos','posdef','poslead','possemidef','projection','rank','rat','real','rho','rho_laplacian','singular','size','samesize','smpcandidate','sparsity','square','stochastic_column','stochastic_row','stochastic_double','sym','symstrict','symmetric','symmetric_skew','ternary','toeplitz','totallypos','trace','tridiag','tril','triu','unitary','vandergraft','vandermonde','vpa','zero'}"], "purpose":"Which property to compute"}
    ]
  }
}
